{
    "peepdf_analysis": {
        "advanced": [
            {
                "version_info": {
                    "catalog": null, 
                    "compressed_objects": [], 
                    "decoding_error_streams": [], 
                    "encoded_streams": [
                        8
                    ], 
                    "error_objects": [], 
                    "info": "2", 
                    "js_objects": [
                        11
                    ], 
                    "objects": [
                        1, 
                        2, 
                        3, 
                        4, 
                        6, 
                        7, 
                        8, 
                        9, 
                        10, 
                        11
                    ], 
                    "streams": [
                        8
                    ], 
                    "suspicious_elements": {
                        "actions": {
                            "/JS": [
                                11
                            ], 
                            "/JavaScript": [
                                11
                            ]
                        }, 
                        "elements": [], 
                        "js_vulns": [], 
                        "triggers": {
                            "/Names": [
                                10
                            ]
                        }, 
                        "urls": null
                    }, 
                    "version_number": 0, 
                    "version_type": "original", 
                    "xref_streams": []
                }
            }
        ], 
        "basic": {
            "binary": true, 
            "comments": 0, 
            "detection": {
                "rate": "40/58", 
                "report_link": "https://www.virustotal.com/file/f492374f04bdee33045b43cad57a301cf22e1ca03cdd2c3e90fd3dbdb8cb38a6/analysis/1542708959/"
            }, 
            "encrypted": true, 
            "encryption_algorithms": [], 
            "errors": [], 
            "filename": "CVE-2010-0188_PDF_05C415D57E92F43578D8DEA73932068B", 
            "linearized": true, 
            "md5": "05c415d57e92f43578d8dea73932068b", 
            "num_objects": 10, 
            "num_streams": 1, 
            "pdf_version": "1.3", 
            "sha1": "18e2712cb167fbd48043b55082e2194e1c119be3", 
            "sha256": "f492374f04bdee33045b43cad57a301cf22e1ca03cdd2c3e90fd3dbdb8cb38a6", 
            "size": 3499, 
            "updates": 0
        }, 
        "date": "2019-08-22 00:03", 
        "peepdf_info": {
            "author": "Jose Miguel Esparza", 
            "revision": "275", 
            "url": "http://peepdf.eternal-todo.com", 
            "version": "0.3"
        }
    }
}