[
    {
        "url": "http://decalage.info/python/oletools", 
        "version": "0.50", 
        "type": "MetaInformation", 
        "script_name": "olevba"
    },
    {
        "json_conversion_successful": true, 
        "code_deobfuscated": null, 
        "analysis": null, 
        "macros": [], 
        "file": "/tmp/build/98ff67ff/sample-source/doc/Round_Table_Discussions.doc", 
        "do_deobfuscate": false, 
        "container": null, 
        "type": "OLE"
    },
    {
        "n_processed": 1, 
        "type": "MetaInformation", 
        "return_code": 0
    }
]
