[
    {
        "url": "http://decalage.info/python/oletools", 
        "version": "0.50", 
        "type": "MetaInformation", 
        "script_name": "olevba"
    },
    {
        "json_conversion_successful": true, 
        "code_deobfuscated": null, 
        "analysis": [
            {
                "type": "Suspicious", 
                "description": "May open a file", 
                "keyword": "Open"
            }, 
            {
                "type": "Suspicious", 
                "description": "May create an OLE object", 
                "keyword": "CreateObject"
            }, 
            {
                "type": "Suspicious", 
                "description": "May download files from the Internet using PowerShell", 
                "keyword": "DownloadFile"
            }, 
            {
                "type": "Suspicious", 
                "description": "May create a text file", 
                "keyword": "ADODB.Stream"
            }, 
            {
                "type": "Suspicious", 
                "description": "May create a text file", 
                "keyword": "SaveToFile"
            }, 
            {
                "type": "Suspicious", 
                "description": "May write to a file (if combined with Open)", 
                "keyword": "Write"
            }, 
            {
                "type": "Suspicious", 
                "description": "May run code from a DLL", 
                "keyword": "Lib"
            }, 
            {
                "type": "Suspicious", 
                "description": "Base64-encoded strings were detected, may be used to obfuscate strings (option --decode to see all)", 
                "keyword": "Base64 Strings"
            }, 
            {
                "type": "IOC", 
                "description": "URL", 
                "keyword": "https://analystcave.com/excel-downloading-files-using-vba/"
            }, 
            {
                "type": "IOC", 
                "description": "Executable file name", 
                "keyword": "wininet.dll"
            }
        ], 
        "macros": [
            {
                "code": "#FROM https://analystcave.com/excel-downloading-files-using-vba/\nPrivate Const INTERNET_FLAG_NO_CACHE_WRITE = &H4000000\nPrivate Declare Function InternetOpen Lib \"wininet.dll\" Alias \"InternetOpenA\" (ByVal lpszAgent As String, ByVal dwAccessType As Long, ByVal lpszProxyName As String, ByVal lpszProxyBypass As String, ByVal dwFlags As Long) As Long\nPrivate Declare Function InternetReadBinaryFile Lib \"wininet.dll\" Alias \"InternetReadFile\" (ByVal hfile As Long, ByRef bytearray_firstelement As Byte, ByVal lNumBytesToRead As Long, ByRef lNumberOfBytesRead As Long) As Integer\nPrivate Declare Function InternetOpenUrl Lib \"wininet.dll\" Alias \"InternetOpenUrlA\" (ByVal hInternetSession As Long, ByVal sUrl As String, ByVal sHeaders As String, ByVal lHeadersLength As Long, ByVal lFlags As Long, ByVal lContext As Long) As Long\nPrivate Declare Function InternetCloseHandle Lib \"wininet.dll\" (ByVal hInet As Long) As Integer\n \nSub DownloadFile(sUrl As String, filePath As String, Optional overWriteFile As Boolean)\n  Dim hInternet, hSession, lngDataReturned As Long, sBuffer() As Byte, totalRead As Long\n  Const bufSize = 128\n  ReDim sBuffer(bufSize)\n  hSession = InternetOpen(\"\", 0, vbNullString, vbNullString, 0)\n  If hSession Then hInternet = InternetOpenUrl(hSession, sUrl, vbNullString, 0, INTERNET_FLAG_NO_CACHE_WRITE, 0)\n  Set oStream = CreateObject(\"ADODB.Stream\")\n  oStream.Open\n  oStream.Type = 1\n \n  If hInternet Then\n    iReadFileResult = InternetReadBinaryFile(hInternet, sBuffer(0), UBound(sBuffer) - LBound(sBuffer), lngDataReturned)\n    ReDim Preserve sBuffer(lngDataReturned - 1)\n    oStream.Write sBuffer\n    ReDim sBuffer(bufSize)\n    totalRead = totalRead + lngDataReturned\n    Application.StatusBar = \"Downloading file. \" & CLng(totalRead / 1024) & \" KB downloaded\"\n    DoEvents\n \n    Do While lngDataReturned <> 0\n      iReadFileResult = InternetReadBinaryFile(hInternet, sBuffer(0), UBound(sBuffer) - LBound(sBuffer), lngDataReturned)\n      If lngDataReturned = 0 Then Exit Do\n \n      ReDim Preserve sBuffer(lngDataReturned - 1)\n      oStream.Write sBuffer\n      ReDim sBuffer(bufSize)\n      totalRead = totalRead + lngDataReturned\n      Application.StatusBar = \"Downloading file. \" & CLng(totalRead / 1024) & \" KB downloaded\"\n      DoEvents\n    Loop\n \n    Application.StatusBar = \"Download complete\"\n    oStream.SaveToFile filePath, IIf(overWriteFile, 2, 1)\n    oStream.Close\n  End If\n  Call InternetCloseHandle(hInternet)\nEnd Sub", 
                "ole_stream": "", 
                "subfilename": "/tmp/build/98ff67ff/sample-source/doc/testi.bas", 
                "vba_filename": "/tmp/build/98ff67ff/sample-source/doc/testi.bas"
            }
        ], 
        "file": "/tmp/build/98ff67ff/sample-source/doc/testi.bas", 
        "do_deobfuscate": false, 
        "container": null, 
        "type": "Text"
    },
    {
        "n_processed": 1, 
        "type": "MetaInformation", 
        "return_code": 0
    }
]
