[
  {
    "fileSHA256": "d0f47f664dac6d78ebab3e905f99bdda6c19347dde0ffbeee71c0796495ec4cf",
    "fileName": "CVE-2010-0188_PDF_1C013154B528B332CD1552451F8AD1A3",
    "fileType": "pdf"
  },
  {
    "fileSHA256": "870f83d351660b44f2e40ed5caa23844e92537966689c845a2a0af26b5dded38",
    "fileName": "CVE-2010-0188_PDF_2E2124D77A3892566C7F2DF207229960",
    "fileType": "pdf"
  },
  {
    "fileSHA256": "c2c62941d0f524fc1eaeba649e8c8349d1492c81fcbf24680439beb127ffd7f5",
    "fileName": "CVE-2010-0188_PDF_6AC220194E8B53C70CFACD6D3ED1F455",
    "fileType": "pdf"
  },
  {
    "fileSHA256": "94777d47bb8af2112eebdab13fd87addb61283cb3b2cd58d93855112780891fc",
    "fileName": "CVE_2010-2883_PDF_3670A3F864BB4DCDE9D399CC4E814798",
    "fileType": "pdf"
  },
  {
    "fileSHA256": "ffc927d004555dd87553cf3d943a7c29a6533d4ad6ba6c0e25f1ce8c8640e19f",
    "fileName": "CVE_2010-2883_PDF_83627FF5E21B8AD89224926CE9913110",
    "fileType": "pdf"
  },
  {
    "fileSHA256": "bb6f26f2a8b57f7ba3d465d9187fd7c3aaa7d40d9292352dadd82657307a14bc",
    "fileName": "CVE_2010-2883_PDF_AF6B71B2BA0E9DC903DC2CE677FFB5ED",
    "fileType": "pdf"
  },
  {
    "fileSHA256": "38307e7fa6344a35c69236d71a871a1d0e7bd4d091019b6fc62243469a3d538e",
    "fileName": "CVE_2010-2883_PDF_BAB80236FBAA1E241CC0F856C4351A84",
    "fileType": "pdf"
  },
  {
    "fileSHA256": "2a11477962ddf24b09f3039cde215e2d573e167a816e58de7431091de1c95415",
    "fileName": "CVE_2010-2883_PDF_BAE689ECAC665833B71670752DED0C4F",
    "fileType": "pdf"
  },
  {
    "fileSHA256": "dc79fe9c352907cecde56be7c335da60fa23044d547edf3f72128645e4184c98",
    "fileName": "Notes.docx",
    "fileType": "vnd.openxmlformats-officedocument.wordprocessingml.document"
  },
  {
    "fileSHA256": "f2bba393701bc31bec7f4f1485c036ac07f96c1e4501ffd93cceb7300f78fe71",
    "fileName": "Round_Table_Discussions.doc",
    "fileType": "msword"
  },
  {
    "fileSHA256": "e3b0c44298fc1c149afbf4c8996fb92427ae41e4649b934ca495991b7852b855",
    "fileName": "tee.txt",
    "fileType": "x-empty"
  },
  {
    "fileSHA256": "a7fc11b5bcd8f0f4bd58d1b003202c2c92193adcf8f42fa30873cac92ba15cb9",
    "fileName": "testi.bas",
    "fileType": "plain"
  },
  {
    "fileSHA256": "67025c35e17abdfca89b65efd0a47ba6d3fb628275f47e641775889c5236bdac",
    "fileName": "sample.pdf",
    "fileType": "pdf"
  }
]
