{
    "pdfid": {
        "countChatAfterLastEof": "", 
        "errorMessage": "", 
        "nonStreamEntropy": "", 
        "header": "%PDF-1.5", 
        "entropy": "", 
        "totalEntropy": "", 
        "isPdf": "True", 
        "keywords": {
            "keyword": [
                {
                    "count": 8, 
                    "hexcodecount": 0, 
                    "name": "obj"
                }, 
                {
                    "count": 8, 
                    "hexcodecount": 0, 
                    "name": "endobj"
                }, 
                {
                    "count": 1, 
                    "hexcodecount": 0, 
                    "name": "stream"
                }, 
                {
                    "count": 1, 
                    "hexcodecount": 0, 
                    "name": "endstream"
                }, 
                {
                    "count": 1, 
                    "hexcodecount": 0, 
                    "name": "xref"
                }, 
                {
                    "count": 1, 
                    "hexcodecount": 0, 
                    "name": "trailer"
                }, 
                {
                    "count": 1, 
                    "hexcodecount": 0, 
                    "name": "startxref"
                }, 
                {
                    "count": 1, 
                    "hexcodecount": 0, 
                    "name": "/Page"
                }, 
                {
                    "count": 0, 
                    "hexcodecount": 0, 
                    "name": "/Encrypt"
                }, 
                {
                    "count": 0, 
                    "hexcodecount": 0, 
                    "name": "/ObjStm"
                }, 
                {
                    "count": 0, 
                    "hexcodecount": 0, 
                    "name": "/JS"
                }, 
                {
                    "count": 0, 
                    "hexcodecount": 0, 
                    "name": "/JavaScript"
                }, 
                {
                    "count": 0, 
                    "hexcodecount": 0, 
                    "name": "/AA"
                }, 
                {
                    "count": 0, 
                    "hexcodecount": 0, 
                    "name": "/OpenAction"
                }, 
                {
                    "count": 1, 
                    "hexcodecount": 0, 
                    "name": "/AcroForm"
                }, 
                {
                    "count": 0, 
                    "hexcodecount": 0, 
                    "name": "/JBIG2Decode"
                }, 
                {
                    "count": 0, 
                    "hexcodecount": 0, 
                    "name": "/RichMedia"
                }, 
                {
                    "count": 0, 
                    "hexcodecount": 0, 
                    "name": "/Launch"
                }, 
                {
                    "count": 1, 
                    "hexcodecount": 0, 
                    "name": "/EmbeddedFile"
                }, 
                {
                    "count": 1, 
                    "hexcodecount": 0, 
                    "name": "/XFA"
                }, 
                {
                    "count": 0, 
                    "hexcodecount": 0, 
                    "name": "/URI"
                }, 
                {
                    "count": 0, 
                    "hexcodecount": 0, 
                    "name": "/Colors > 2^24"
                }
            ]
        }, 
        "countEof": "", 
        "FileSHA256": "41535d04a97c2df7c124d4ca357c1867318cf1852edb2c5dd0600ea42d3bba46", 
        "dates": {
            "date": []
        }, 
        "filename": "/tmp/build/c01fbd34/sample-source/CVE-2010-0188_PDF_0BE85FEC3D98D70F1FB6D08CCEF7FD65", 
        "version": "0.2.5", 
        "streamEntropy": "", 
        "errorOccured": "False"
    }, 
    "plugin_data": [
        {
            "score": 1.0, 
            "plugin_name": "Triage plugin", 
            "instructions": "Sample is likely malicious and requires further analysis"
        }
    ]
}